Division,WeightClassKg,Place,Name,Team,BodyweightKg,Best3SquatKg,Best3BenchKg,Best3DeadliftKg,TotalKg,Equipment,Event,Sex,BirthDate
Boys,55.79,1,Jace Newton,Cleveland Tarkington,54.43,111.13,77.11,145.15,333.39,Unlimited,SBD,M,
Boys,59.87,DQ,Clinton Parker,Splendora,59.87,,,,,Unlimited,SBD,M,
Boys,59.87,DQ,Devin Davila,Corrigan-Camden,58.97,,,,,Unlimited,SBD,M,
Boys,67.13,1,Moises Cardenas,Cleveland Tarkington,66.22,204.12,113.4,215.46,532.97,Unlimited,SBD,M,
Boys,67.13,2,Ivan Butler,Coldspring-Oakhurst,61.69,138.35,90.72,161.03,390.09,Unlimited,SBD,M,
Boys,67.13,3,Drake Terell,Cleveland Tarkington,65.77,136.08,97.52,156.49,390.09,Unlimited,SBD,M,
Boys,67.13,4,Jorge Cuevas,Cleveland Tarkington,64.41,124.74,81.65,158.76,365.14,Unlimited,SBD,M,
Boys,67.13,5,Caleb Russell,Splendora,67.13,124.74,79.38,133.81,337.93,Unlimited,SBD,M,
Boys,67.13,DQ,Odis Bogany,Coldspring-Oakhurst,67.13,,,,,Unlimited,SBD,M,
Boys,74.84,1,Nick Brown,Splendora,74.84,195.04,106.59,183.7,485.34,Unlimited,SBD,M,
Boys,74.84,2,Brenton Whitley,Cleveland Tarkington,74.39,206.38,127.01,147.42,480.81,Unlimited,SBD,M,
Boys,74.84,3,Colton Bailey,Coldspring-Oakhurst,73.48,151.95,111.13,165.56,428.64,Unlimited,SBD,M,
Boys,74.84,4,Donquavion Gray,Coldspring-Oakhurst,74.84,151.95,106.59,154.22,412.77,Unlimited,SBD,M,
Boys,74.84,5,Tatum Clements,Cleveland Tarkington,70.67,154.22,88.45,151.95,394.63,Unlimited,SBD,M,
Boys,74.84,6,Terry Mills,Coldspring-Oakhurst,69.4,147.42,79.38,156.49,383.29,Unlimited,SBD,M,
Boys,74.84,7,Jerry Stonburger,Cleveland Tarkington,69.08,131.54,102.06,136.08,369.68,Unlimited,SBD,M,
Boys,74.84,8,Jamarious Parker,Coldspring-Oakhurst,74.84,133.81,77.11,136.08,347,Unlimited,SBD,M,
Boys,74.84,DQ,Bryan Bailey,Splendora,74.84,113.4,,,,Unlimited,SBD,M,
Boys,74.84,DQ,Tate Stamper,Coldspring-Oakhurst,71.21,,,,,Unlimited,SBD,M,
Boys,82.1,1,Karson Allen,Livingston,82.1,188.24,122.47,172.37,483.08,Unlimited,SBD,M,
Boys,82.1,2,Ethan Pullin,Corrigan-Camden,81.65,165.56,92.99,179.17,437.72,Unlimited,SBD,M,
Boys,82.1,3,Ritchie Gutierrez,Splendora,82.1,156.49,97.52,142.88,396.89,Unlimited,SBD,M,
Boys,82.1,4,Brian Arvisu,Splendora,82.1,108.86,92.99,151.95,353.8,Unlimited,SBD,M,
Boys,82.1,5,Matthew Jolley,Coldspring-Oakhurst,75.75,95.25,56.7,127.01,278.96,Unlimited,SBD,M,
Boys,82.1,DQ,Damorian Hill,Livingston,79.38,188.24,95.25,,,Unlimited,SBD,M,
Boys,82.1,DQ,Sam Morton,Coldspring-Oakhurst,80.74,,,,,Unlimited,SBD,M,
Boys,89.81,1,Brayden Ethier,Livingston,89.81,235.87,140.61,210.92,587.4,Unlimited,SBD,M,
Boys,89.81,2,Brandon Pitty,Cleveland Tarkington,82.74,215.46,115.67,226.8,557.92,Unlimited,SBD,M,
Boys,89.81,3,Matthew Fergeson,Splendora,89.81,199.58,147.42,197.31,544.31,Unlimited,SBD,M,
Boys,89.81,4,Pharrell Newsome,Coldspring-Oakhurst,89.81,197.31,113.4,210.92,521.63,Unlimited,SBD,M,
Boys,89.81,5,Angel Rivera,Corrigan-Camden,89.81,204.12,124.74,170.1,498.95,Unlimited,SBD,M,
Boys,89.81,6,Ethan Rodriquez,Splendora,89.81,190.51,117.93,190.51,498.95,Unlimited,SBD,M,
Boys,89.81,7,Jarius Hood,Corrigan-Camden,88.45,188.24,108.86,195.04,492.15,Unlimited,SBD,M,
Boys,89.81,8,Bryan Gonzales,Corrigan-Camden,88.45,170.1,97.52,167.83,435.45,Unlimited,SBD,M,
Boys,89.81,9,Logan Morgan,Cleveland Tarkington,87.09,131.54,92.99,161.03,385.55,Unlimited,SBD,M,
Boys,99.79,1,Enrique Tellez,Livingston,99.79,269.89,161.03,260.82,691.73,Unlimited,SBD,M,
Boys,99.79,2,Xavier Mindiola,Livingston,99.79,263.08,163.29,247.21,673.58,Unlimited,SBD,M,
Boys,99.79,3,Wesley Smith,Corrigan-Camden,96.16,226.8,124.74,219.99,571.53,Unlimited,SBD,M,
Boys,99.79,4,Alex Perez,Livingston,99.79,210.92,127.01,206.38,544.31,Unlimited,SBD,M,
Boys,99.79,5,Dominack Santana,Splendora,99.79,179.17,127.01,195.04,501.22,Unlimited,SBD,M,
Boys,99.79,6,Aiden Miranda,Splendora,92.08,174.63,127.01,185.97,487.61,Unlimited,SBD,M,
Boys,99.79,7,Jackson Dankenbrink,Cleveland Tarkington,97.52,170.1,90.72,165.56,426.38,Unlimited,SBD,M,
Boys,99.79,8,Kyle Harrington,Livingston,98.7,142.88,90.72,183.7,417.3,Unlimited,SBD,M,
Boys,99.79,DQ,Koty Johnson,Corrigan-Camden,98.88,,,,,Unlimited,SBD,M,
Boys,109.77,1,Tallan Atkinson,Livingston,102.51,240.4,138.35,231.33,610.08,Unlimited,SBD,M,
Boys,109.77,2,Elijah Martin,Splendora,109.77,249.48,127.01,195.04,571.53,Unlimited,SBD,M,
Boys,109.77,3,Roman Ontiveros,Livingston,107.05,183.7,104.33,201.85,489.88,Unlimited,SBD,M,
Boys,109.77,4,Jeremiah Capps,Splendora,103.42,142.88,106.59,210.92,460.4,Unlimited,SBD,M,
Boys,109.77,5,Benjamin Dearing,Splendora,109.77,142.88,104.33,165.56,412.77,Unlimited,SBD,M,
Boys,109.77,DQ,Justin Scarborough,Cleveland Tarkington,101.6,,,,,Unlimited,SBD,M,
Boys,109.77,DQ,Jacob Cowles,Livingston,109.77,204.12,131.54,,,Unlimited,SBD,M,
Boys,124.74,1,Ethan Wells,Cleveland Tarkington,115.21,199.58,122.47,242.67,564.72,Unlimited,SBD,M,
Boys,124.74,2,Emmanuel Riveros,Splendora,124.74,201.85,111.13,183.7,496.68,Unlimited,SBD,M,
Boys,139.71,1,Dameon Kampfer,Livingston,126.1,197.31,145.15,190.51,532.97,Unlimited,SBD,M,
Boys,139.71,2,Cody Garnett,Coldspring-Oakhurst,126.1,154.22,115.67,147.42,417.3,Unlimited,SBD,M,
Boys,139.71,DQ,Treye Atkinson,Livingston,132,244.94,120.2,,,Unlimited,SBD,M,
Boys,139.71+,1,Conner Colbert,Cleveland Tarkington,140.52,226.8,115.67,197.31,539.77,Unlimited,SBD,M,
