Division,WeightClassKg,Place,Name,Team,BodyweightKg,Best3SquatKg,Best3BenchKg,Best3DeadliftKg,TotalKg,Equipment,Event,Sex,BirthDate
Girls,44.23,1,Lenny Garcia,La Joya,40.55,34.02,22.68,27.22,83.91,Unlimited,SBD,F,
Girls,47.85,1,Arieannah Carrillo,Edinburg,47.45,99.79,47.63,92.99,240.4,Unlimited,SBD,F,
Girls,47.85,2,Adelyda Maldonado,Edinburg Economedes,47.85,88.45,49.9,102.06,240.4,Unlimited,SBD,F,
Girls,47.85,3,Valerie Villarreal,PSJA,45.36,72.57,34.02,92.99,199.58,Unlimited,SBD,F,
Girls,47.85,4,Yashiri Reyna,La Joya,45.09,63.5,20.41,72.57,156.49,Unlimited,SBD,F,
Girls,47.85,5,Alexis Pena #2,PSJA North,45.81,58.97,22.68,68.04,149.69,Unlimited,SBD,F,
Girls,47.85,DQ,Bobbie Jo Martinez,PSJA,47.08,65.77,,,,Unlimited,SBD,F,
Girls,51.94,1,Yamileth Hernandez,Edinburg,51.89,111.13,54.43,102.06,267.62,Unlimited,SBD,F,
Girls,51.94,2,Jade Guzman,Edinburg,51.8,102.06,47.63,97.52,247.21,Unlimited,SBD,F,
Girls,51.94,3,Jaidy Alcala,Edinburg North,51.17,95.25,54.43,92.99,242.67,Unlimited,SBD,F,
Girls,51.94,4,Alyssa Muniz,Edinburg North,47.9,65.77,38.56,83.91,188.24,Unlimited,SBD,F,
Girls,51.94,5,Ashley Chasco,Edinburg North,51.89,70.31,38.56,77.11,185.97,Unlimited,SBD,F,
Girls,51.94,6,Carla Vera,La Joya,49.71,56.7,27.22,54.43,138.35,Unlimited,SBD,F,
Girls,51.94,DQ,Corina Garcia,Edinburg Economedes,47.94,,,,,Unlimited,SBD,F,
Girls,51.94,DQ,Sarah Rodriguez,PSJA North,50.35,,,,,Unlimited,SBD,F,
Girls,56.02,1,Danica Rivera,Edinburg,55.43,113.4,56.7,115.67,285.76,Unlimited,SBD,F,
Girls,56.02,2,Ayleen Perez,Mission,54.43,117.93,56.7,108.86,283.5,Unlimited,SBD,F,
Girls,56.02,3,Dariana Gonzalez,Edinburg Vela,54.98,111.13,54.43,117.93,283.5,Unlimited,SBD,F,
Girls,56.02,4,Alondra Garcia,Edinburg North,54.52,97.52,49.9,97.52,244.94,Unlimited,SBD,F,
Girls,56.02,5,Estrella De Leon,PSJA North,53.52,83.91,47.63,102.06,233.6,Unlimited,SBD,F,
Girls,56.02,6,Katelyn Gutierrez,PSJA North,54.61,79.38,38.56,88.45,206.38,Unlimited,SBD,F,
Girls,56.02,7,Jocelyn Gutierrez,PSJA,55.52,77.11,45.36,81.65,204.12,Unlimited,SBD,F,
Girls,56.02,8,Melany Guevara,La Joya,52.89,65.77,36.29,70.31,172.37,Unlimited,SBD,F,
Girls,60.1,1,Keily Guzman,La Joya,58.69,156.49,88.45,142.88,387.82,Unlimited,SBD,F,
Girls,60.1,2,Annissa Gomez,Edinburg,59.96,133.81,83.91,122.47,340.19,Unlimited,SBD,F,
Girls,60.1,3,Jennah Sandoval,Edinburg,59.24,138.35,68.04,131.54,337.93,Unlimited,SBD,F,
Girls,60.1,4,Jimena Quintanilla-Reyes,Edinburg Vela,59.15,138.35,72.57,117.93,328.85,Unlimited,SBD,F,
Girls,60.1,5,Camila Garcia,Edinburg Economedes,59.78,124.74,56.7,131.54,312.98,Unlimited,SBD,F,
Girls,60.1,6,Victoria Solis,La Joya,59.78,102.06,47.63,104.33,254.01,Unlimited,SBD,F,
Girls,60.1,7,Yvette Cindo,Edinburg Vela,56.97,95.25,43.09,106.59,244.94,Unlimited,SBD,F,
Girls,60.1,8,Estefania Serna,Edinburg Economedes,59.6,90.72,49.9,97.52,238.14,Unlimited,SBD,F,
Girls,60.1,9,Elisa Garcia,PSJA North,59.06,95.25,43.09,81.65,219.99,Unlimited,SBD,F,
Girls,67.36,1,Brianna Marquez,Mission,67.04,192.78,113.4,149.69,455.86,Unlimited,SBD,F,
Girls,67.36,2,Aleena Chavez,Mission,60.15,158.76,83.91,136.08,378.75,Unlimited,SBD,F,
Girls,67.36,3,Denisse Serna,Edinburg,65.32,149.69,83.91,129.27,362.87,Unlimited,SBD,F,
Girls,67.36,4,Julie Benitez,Edinburg Vela,66.04,149.69,90.72,122.47,362.87,Unlimited,SBD,F,
Girls,67.36,5,Carly Leal,Edinburg Vela,64.59,147.42,70.31,138.35,356.07,Unlimited,SBD,F,
Girls,67.36,6,Abby Yzaguirre,PSJA North,65.45,140.61,81.65,124.74,347,Unlimited,SBD,F,
Girls,67.36,7,Rubi Suarez,Edinburg,66.68,140.61,72.57,133.81,347,Unlimited,SBD,F,
Girls,67.36,8,Jocelyn Lopez,Edinburg Economedes,66.59,113.4,61.23,127.01,301.64,Unlimited,SBD,F,
Girls,67.36,9,Gabrielle Garcia,Edinburg North,60.96,111.13,70.31,113.4,294.84,Unlimited,SBD,F,
Girls,67.36,10,Victoria Avila,Edinburg Economedes,61.6,106.59,52.16,102.06,260.82,Unlimited,SBD,F,
Girls,67.36,11,Aritza Villarreal,La Joya Juarez-Lincoln,65.5,102.06,52.16,102.06,256.28,Unlimited,SBD,F,
Girls,67.36,12,Mia Paredes,PSJA,62.69,99.79,52.16,99.79,251.74,Unlimited,SBD,F,
Girls,67.36,13,Ava Lugo,PSJA North,62.78,102.06,45.36,102.06,249.48,Unlimited,SBD,F,
Girls,67.36,DQ,Alexis Rodriguez #10,PSJA,67.27,,,,,Unlimited,SBD,F,
Girls,75.07,1,Polet Tijerina,Edinburg Economedes,71.12,154.22,92.99,142.88,390.09,Unlimited,SBD,F,
Girls,75.07,2,Ava McCann,Edinburg Vela,70.67,149.69,72.57,149.69,371.95,Unlimited,SBD,F,
Girls,75.07,3,Madison Garcia,PSJA,74.48,140.61,88.45,142.88,371.95,Unlimited,SBD,F,
Girls,75.07,4,Valerie Estrada,Edinburg North,73.94,133.81,70.31,138.35,342.46,Unlimited,SBD,F,
Girls,75.07,5,Victoria De La Rosa,PSJA North,72.67,124.74,68.04,136.08,328.85,Unlimited,SBD,F,
Girls,75.07,6,Destiny Perez,La Joya Juarez-Lincoln,73.66,140.61,58.97,129.27,328.85,Unlimited,SBD,F,
Girls,75.07,7,Danielle Hess,Edinburg Vela,69.04,127.01,63.5,124.74,315.25,Unlimited,SBD,F,
Girls,75.07,8,Myrka Cuadros,Mission,70.67,97.52,52.16,83.91,233.6,Unlimited,SBD,F,
Girls,75.07,9,Nichol Esparza,Mission,71.49,77.11,45.36,106.59,229.06,Unlimited,SBD,F,
Girls,75.07,10,Leslie Navarro,PSJA,67.49,70.31,34.02,79.38,183.7,Unlimited,SBD,F,
Girls,75.07,DQ,Summer Ayala,Edinburg North,73.94,99.79,,,,Unlimited,SBD,F,
Girls,82.33,1,Ashley Chavez,Edinburg Economedes,76.38,195.04,113.4,161.03,469.47,Unlimited,SBD,F,
Girls,82.33,2,Trinity Guzman,Edinburg North,78.93,142.88,79.38,149.69,371.95,Unlimited,SBD,F,
Girls,82.33,3,Liz Perez,La Joya Juarez-Lincoln,77.56,158.76,65.77,145.15,369.68,Unlimited,SBD,F,
Girls,82.33,4,Ashlynn Montes,PSJA North,77.29,147.42,74.84,136.08,358.34,Unlimited,SBD,F,
Girls,82.33,5,Aliyah Martinez,Edinburg Economedes,76.29,120.2,65.77,133.81,319.78,Unlimited,SBD,F,
Girls,82.33,6,Jayden Florido,PSJA,80.92,86.18,43.09,77.11,206.38,Unlimited,SBD,F,
Girls,90.04,1,Maria Casillas,PSJA North,89.4,181.44,97.52,161.03,439.98,Unlimited,SBD,F,
Girls,90.04,2,Sofia Lopez,Edinburg North,89.99,151.95,86.18,142.88,381.02,Unlimited,SBD,F,
Girls,90.04,3,Jocelyn Garza,Edinburg Vela,87.45,149.69,68.04,142.88,360.61,Unlimited,SBD,F,
Girls,90.04,4,Jennifer Colmenero,Edinburg,82.83,145.15,72.57,127.01,344.73,Unlimited,SBD,F,
Girls,90.04,5,Perla Castillo,Edinburg Economedes,90.04,129.27,77.11,117.93,324.32,Unlimited,SBD,F,
Girls,90.04,6,Samantha Acevedo,La Joya,85.37,47.63,24.95,79.38,151.95,Unlimited,SBD,F,
Girls,100.02,1,Anahi Garcia,Edinburg Economedes,92.08,183.7,124.74,197.31,505.76,Unlimited,SBD,F,
Girls,100.02,2,Siomara Garcia,Edinburg Economedes,98.88,174.63,106.59,161.03,442.25,Unlimited,SBD,F,
Girls,100.02,3,Hailey Cuevas,PSJA North,92.17,163.29,99.79,151.95,415.04,Unlimited,SBD,F,
Girls,100.02,4,Alyssa Alvarado,Edinburg,92.8,174.63,95.25,124.74,394.63,Unlimited,SBD,F,
Girls,100.02,5,Karina Garcia,Edinburg,92.9,176.9,65.77,131.54,374.21,Unlimited,SBD,F,
Girls,100.02,6,Emily Gonzalez,Edinburg Vela,93.44,142.88,65.77,124.74,333.39,Unlimited,SBD,F,
Girls,117.71,1,Erika Guerrero,Mission,116.03,240.4,136.08,158.76,535.24,Unlimited,SBD,F,
Girls,117.71,2,Sara Arista,PSJA North,113.53,183.7,90.72,129.27,403.7,Unlimited,SBD,F,
Girls,117.71,3,Elsa Reyna,Edinburg,105.69,151.95,97.52,120.2,369.68,Unlimited,SBD,F,
Girls,117.71,4,Mikaela Rodriguez,Edinburg Vela,103.33,149.69,72.57,133.81,356.07,Unlimited,SBD,F,
Girls,117.71,5,Aliyah Zuniga,PSJA,103.69,92.99,40.82,111.13,244.94,Unlimited,SBD,F,
Girls,117.71+,1,Julia Medellin,Edinburg North,124.65,124.74,74.84,115.67,315.25,Unlimited,SBD,F,
Girls,117.71+,2,Gabby Flores,La Joya,121.11,45.36,43.09,95.25,183.7,Unlimited,SBD,F,
Girls,,NS,Madali Flores,La Joya,,,,,,Unlimited,SBD,F,
Girls,,NS,Jazlin Hernandez,La Joya,,,,,,Unlimited,SBD,F,
Girls,,NS,Alexis Meare,Edinburg Vela,,,,,,Unlimited,SBD,F,
Girls,,NS,Lia Garza,PSJA,,,,,,Unlimited,SBD,F,
Girls,,NS,Zadie Flores,Edinburg Vela,,,,,,Unlimited,SBD,F,
Girls,,NS,Lizbeth Vallejo,Edinburg North,,,,,,Unlimited,SBD,F,
Girls,,NS,Arianna Ortiz,Edinburg North,,,,,,Unlimited,SBD,F,
