Division,WeightClassKg,Place,Name,Team,BodyweightKg,Best3SquatKg,Best3BenchKg,Best3DeadliftKg,TotalKg,Equipment,Event,Sex,BirthDate
Girls,44.23,1,Brittney Benedetti,PSJA Memorial,43.77,120.2,49.9,120.2,290.3,Unlimited,SBD,F,
Girls,44.23,2,Valeria Villareal,PSJA,44,102.06,38.56,127.01,267.62,Unlimited,SBD,F,
Girls,44.23,3,Layla Barrientes,PSJA Memorial,44,77.11,34.02,90.72,201.85,Unlimited,SBD,F,
Girls,44.23,DQ,America Villegas,PSJA Southwest,44,113.4,,,,Unlimited,SBD,F,
Girls,47.85,1,Raylein Gaona,PSJA Memorial,47.63,108.86,49.9,124.74,283.5,Unlimited,SBD,F,
Girls,47.85,2,Alexis Pena #2,PSJA North,47.49,77.11,36.29,90.72,204.12,Unlimited,SBD,F,
Girls,47.85,3,Emily Ayala,PSJA Memorial,47.17,79.38,36.29,74.84,190.51,Unlimited,SBD,F,
Girls,51.94,1,Carolina De La Fuente,PSJA Memorial,51.35,113.4,61.23,115.67,290.3,Unlimited,SBD,F,
Girls,51.94,2,Jade Solis,PSJA,51.07,83.91,43.09,102.06,229.06,Unlimited,SBD,F,
Girls,51.94,3,Estrella De Leon,PSJA North,51.62,86.18,43.09,92.99,222.26,Unlimited,SBD,F,
Girls,51.94,4,Desiree Villegas,PSJA Memorial,50.26,65.77,52.16,97.52,215.46,Unlimited,SBD,F,
Girls,51.94,5,Bella Garza,PSJA North,51.21,74.84,40.82,97.52,213.19,Unlimited,SBD,F,
Girls,56.02,1,Vanessa Vega,PSJA Memorial,54.93,99.79,54.43,124.74,278.96,Unlimited,SBD,F,
Girls,56.02,2,Aidil Huerta,PSJA Memorial,54.88,65.77,34.02,81.65,181.44,Unlimited,SBD,F,
Girls,60.1,1,Katelyn Gutierrez,PSJA North,58.97,86.18,54.43,108.86,249.48,Unlimited,SBD,F,
Girls,60.1,2,Bella Lopez,PSJA Memorial,59.69,90.72,54.43,102.06,247.21,Unlimited,SBD,F,
Girls,60.1,3,Kenia Mejia,PSJA Memorial,59.74,83.91,47.63,104.33,235.87,Unlimited,SBD,F,
Girls,60.1,4,Evelyn Recio,PSJA,59.24,90.72,36.29,92.99,219.99,Unlimited,SBD,F,
Girls,67.36,1,Madison Garcia,PSJA,65.73,154.22,90.72,161.03,405.97,Unlimited,SBD,F,
Girls,67.36,2,Ashlyn Montes,PSJA North,66.68,158.76,77.11,151.95,387.82,Unlimited,SBD,F,
Girls,67.36,3,Roselyn Garcia,PSJA Southwest,64.46,136.08,49.9,145.15,331.12,Unlimited,SBD,F,
Girls,67.36,4,Marissa Camacho,PSJA Memorial,64.77,108.86,54.43,122.47,285.76,Unlimited,SBD,F,
Girls,67.36,5,Karyme Pichardo,PSJA,63.46,90.72,54.43,122.47,267.62,Unlimited,SBD,F,
Girls,67.36,6,Graciela Juarez,PSJA North,63.23,92.99,61.23,106.59,260.82,Unlimited,SBD,F,
Girls,67.36,7,Alyssa Ibarra,PSJA North,62.51,88.45,43.09,102.06,233.6,Unlimited,SBD,F,
Girls,67.36,8,Gala Cantu,PSJA North,61.1,74.84,43.09,83.91,201.85,Unlimited,SBD,F,
Girls,67.36,9,Sofia Rosas,PSJA Southwest,61.1,61.23,29.48,86.18,176.9,Unlimited,SBD,F,
Girls,75.07,1,Eleana Canales,PSJA Memorial,73.8,179.17,95.25,154.22,428.64,Unlimited,SBD,F,
Girls,75.07,2,Arlette Recio,PSJA,73.35,145.15,90.72,142.88,378.75,Unlimited,SBD,F,
Girls,75.07,3,Alaney Guerrero,PSJA North,73.07,113.4,68.04,102.06,283.5,Unlimited,SBD,F,
Girls,75.07,4,Mia Salazar,PSJA North,73.94,108.86,58.97,111.13,278.96,Unlimited,SBD,F,
Girls,75.07,5,Alexis Rodriguez #10,PSJA,74.48,102.06,54.43,90.72,247.21,Unlimited,SBD,F,
Girls,75.07,6,Skarlet De Leon,PSJA,71.21,92.99,36.29,106.59,235.87,Unlimited,SBD,F,
Girls,75.07,7,Nadya Barrientes,PSJA Memorial,70.62,95.25,43.09,88.45,226.8,Unlimited,SBD,F,
Girls,75.07,DQ,Sydney Elizondo,PSJA North,70.76,65.77,,,,Unlimited,SBD,F,
Girls,82.33,1,Briana Almaguer,PSJA North,79.92,122.47,58.97,115.67,297.1,Unlimited,SBD,F,
Girls,82.33,2,Clarissa Pena,PSJA,79.79,102.06,63.5,127.01,292.57,Unlimited,SBD,F,
Girls,82.33,3,Jayden Florido,PSJA,78.88,120.2,61.23,102.06,283.5,Unlimited,SBD,F,
Girls,82.33,4,Jolie Ayala,PSJA Southwest,78.24,117.93,58.97,102.06,278.96,Unlimited,SBD,F,
Girls,82.33,5,Jezebel Calderon,PSJA Memorial,78.93,68.04,45.36,111.13,224.53,Unlimited,SBD,F,
Girls,82.33,6,Jasmine Cerda,PSJA North,79.29,86.18,43.09,83.91,213.19,Unlimited,SBD,F,
Girls,90.04,1,Miranda Montez,PSJA Southwest,84.73,183.7,83.91,161.03,428.64,Unlimited,SBD,F,
Girls,90.04,2,Angelica Martinez,PSJA Southwest,84.46,170.1,74.84,149.69,394.63,Unlimited,SBD,F,
Girls,90.04,3,Alexia Acosta,PSJA Southwest,87.72,136.08,61.23,117.93,315.25,Unlimited,SBD,F,
Girls,90.04,4,Vivianna De La Rosa,PSJA North,88.72,108.86,45.36,90.72,244.94,Unlimited,SBD,F,
Girls,90.04,5,Allison Salazar,PSJA Memorial,86.14,95.25,40.82,74.84,210.92,Unlimited,SBD,F,
Girls,100.02,1,Perla Garza,PSJA Southwest,92.99,206.38,95.25,165.56,467.2,Unlimited,SBD,F,
Girls,100.02,2,Natalie Reyes,PSJA Southwest,97.48,115.67,65.77,81.65,263.08,Unlimited,SBD,F,
Girls,100.02,DQ,Hally Cuevas,PSJA North,95.8,,,,,Unlimited,SBD,F,
Girls,117.71,1,Sara Arista,PSJA North,109.77,201.85,106.59,99.79,408.23,Unlimited,SBD,F,
Girls,117.71,2,Ailyn Meza,PSJA Memorial,103.15,170.1,81.65,131.54,383.29,Unlimited,SBD,F,
Girls,117.71,3,Valentina Castillo,PSJA Memorial,102.38,86.18,49.9,111.13,247.21,Unlimited,SBD,F,
Girls,117.71+,1,Briana Galvez,PSJA Memorial,150.59,49.9,45.36,81.65,176.9,Unlimited,SBD,F,
