Division,WeightClassKg,Place,Name,Team,BodyweightKg,Best3SquatKg,Best3BenchKg,Best3DeadliftKg,TotalKg,Equipment,Event,Sex,BirthDate
Boys,55.79,1,Emiliano Garcia,Bishop,54.07,163.29,92.99,174.63,430.91,Unlimited,SBD,M,
Boys,55.79,2,Sergio Garza,Santa Gertrudis Academy,52.44,136.08,77.11,165.56,378.75,Unlimited,SBD,M,
Boys,55.79,DQ,Jordan Hudson,Bishop,54.52,,,,,Unlimited,SBD,M,
Boys,59.87,1,Tre Galvan,Bishop,59.87,197.31,124.74,210.92,532.97,Unlimited,SBD,M,
Boys,59.87,2,Julio Palomo,Bishop,58.69,174.63,113.4,201.85,489.88,Unlimited,SBD,M,
Boys,59.87,3,Ander Schmidt,Orange Grove,59.87,142.88,97.52,138.35,378.75,Unlimited,SBD,M,
Boys,59.87,DQ,Nathan Hale,Orange Grove,59.6,108.86,58.97,,,Unlimited,SBD,M,
Boys,67.13,1,Mark Diaz,Bishop,64.5,208.65,120.2,201.85,530.7,Unlimited,SBD,M,
Boys,67.13,2,Andres Cano,Santa Gertrudis Academy,64.59,167.83,115.67,201.85,485.34,Unlimited,SBD,M,
Boys,67.13,3,Antonio Villarreal,Bishop,66.13,179.17,99.79,192.78,471.74,Unlimited,SBD,M,
Boys,67.13,4,Kim Yates,George West,64.32,167.83,115.67,151.95,435.45,Unlimited,SBD,M,
Boys,67.13,5,Victor Gordon,Orange Grove,66.5,129.27,72.57,142.88,344.73,Unlimited,SBD,M,
Boys,67.13,6,Cooper Johnson,Orange Grove,64,136.08,70.31,136.08,342.46,Unlimited,SBD,M,
Boys,67.13,7,Jayden Hernandez,George West,62.41,127.01,79.38,115.67,322.05,Unlimited,SBD,M,
Boys,67.13,8,Matthew Garza,Santa Gertrudis Academy,65.95,90.72,68.04,113.4,272.16,Unlimited,SBD,M,
Boys,67.13,DQ,Ryan Garcia,Santa Gertrudis Academy,65.68,,,,,Unlimited,SBD,M,
Boys,74.84,1,Mauro Arvizu,Three Rivers,72.57,190.51,127.01,195.04,512.56,Unlimited,SBD,M,
Boys,74.84,2,Achilles Flores,Orange Grove,74.39,181.44,142.88,165.56,489.88,Unlimited,SBD,M,
Boys,74.84,3,Brodie Shaw,George West,72.48,181.44,117.93,163.29,462.66,Unlimited,SBD,M,
Boys,74.84,4,Diego Arvizu,Three Rivers,69.31,165.56,122.47,170.1,458.13,Unlimited,SBD,M,
Boys,74.84,5,Jonathan Rodriguez,Orange Grove,72.57,161.03,90.72,142.88,394.63,Unlimited,SBD,M,
Boys,74.84,6,Dylan Thomisee,George West,74.21,156.49,102.06,136.08,394.63,Unlimited,SBD,M,
Boys,74.84,7,Avtandil Metreveli,George West,69.4,131.54,83.91,122.47,337.93,Unlimited,SBD,M,
Boys,74.84,8,Ryan Rodriguez,Three Rivers,72.48,108.86,104.33,122.47,335.66,Unlimited,SBD,M,
Boys,74.84,9,Aaron Gonzalez,Orange Grove,71.94,120.2,65.77,142.88,328.85,Unlimited,SBD,M,
Boys,74.84,10,Wyatt Burnett,George West,74.03,133.81,72.57,120.2,326.59,Unlimited,SBD,M,
Boys,74.84,11,Jackson Pond,Three Rivers,72.21,97.52,56.7,104.33,258.55,Unlimited,SBD,M,
Boys,82.1,1,Ayden Garcia,Santa Gertrudis Academy,79.29,238.14,165.56,256.28,659.98,Unlimited,SBD,M,
Boys,82.1,2,Karlos Diaz,Santa Gertrudis Academy,79.11,192.78,133.81,204.12,530.7,Unlimited,SBD,M,
Boys,82.1,3,Benjamin DeLeon,Santa Gertrudis Academy,75.93,192.78,138.35,183.7,514.83,Unlimited,SBD,M,
Boys,82.1,4,Estevan Escobedo,Santa Gertrudis Academy,76.93,176.9,131.54,204.12,512.56,Unlimited,SBD,M,
Boys,82.1,5,Alex Castellano,George West,80.1,204.12,136.08,170.1,510.29,Unlimited,SBD,M,
Boys,82.1,6,Vincent Gordon,Orange Grove,77.11,167.83,74.84,158.76,401.43,Unlimited,SBD,M,
Boys,82.1,7,Devin De La Garza,Bishop,80.74,163.29,88.45,142.88,394.63,Unlimited,SBD,M,
Boys,82.1,8,Christovin Cisneros,George West,79.92,129.27,90.72,122.47,342.46,Unlimited,SBD,M,
Boys,82.1,DQ,Walker Fox,Three Rivers,77.29,115.67,,,,Unlimited,SBD,M,
Boys,89.81,1,Chayse Mrazek,Bishop,85.91,249.48,154.22,247.21,650.91,Unlimited,SBD,M,
Boys,89.81,2,Nathan De La Rosa,Santa Gertrudis Academy,89.36,204.12,140.61,199.58,544.31,Unlimited,SBD,M,
Boys,89.81,3,Silas Shaw,George West,85.46,165.56,111.13,170.1,446.79,Unlimited,SBD,M,
Boys,89.81,4,Jordan Martinez,Orange Grove,89.81,151.95,108.86,158.76,419.57,Unlimited,SBD,M,
Boys,89.81,5,Angel Reyes,Orange Grove,85,97.52,68.04,133.81,299.37,Unlimited,SBD,M,
Boys,99.79,1,Kevin Guajardo,Bishop,95.25,197.31,154.22,197.31,548.85,Unlimited,SBD,M,
Boys,99.79,2,Richard Deleon,Bishop,94.89,192.78,117.93,197.31,508.02,Unlimited,SBD,M,
Boys,99.79,DQ,Jallen Medina,George West,94.26,,,,,Unlimited,SBD,M,
Boys,109.77,1,Ryan DeLaRosa,Santa Gertrudis Academy,101.51,181.44,106.59,176.9,464.93,Unlimited,SBD,M,
Boys,109.77,2,Isreal Solis,Orange Grove,104.96,167.83,117.93,174.63,460.4,Unlimited,SBD,M,
Boys,124.74,1,Noah Pena,Orange Grove,112.13,167.83,106.59,142.88,417.3,Unlimited,SBD,M,
Boys,139.71,1,Wyatt Smith,George West,139.71,247.21,158.76,201.85,607.81,Unlimited,SBD,M,
Boys,139.71,2,Julian Moreno,Bishop,130.82,204.12,120.2,170.1,494.42,Unlimited,SBD,M,
Boys,139.71,3,David Martinez,Bishop,125.1,190.51,102.06,183.7,476.27,Unlimited,SBD,M,
Boys,139.71,4,Ernesto Elizondo,Santa Gertrudis Academy,137.44,181.44,95.25,188.24,464.93,Unlimited,SBD,M,
Boys,139.71,5,Samuel Saenz,Santa Gertrudis Academy,139.34,133.81,79.38,136.08,349.27,Unlimited,SBD,M,
Boys,139.71+,DQ,Ben Shaw,George West,146.42,,,,,Unlimited,SBD,M,
Boys,,NS,Cameron Garcia,Three Rivers,,,,,,Unlimited,SBD,M,
