Division,WeightClassKg,Place,Name,Team,BodyweightKg,Best3SquatKg,Best3BenchKg,Best3DeadliftKg,TotalKg,Equipment,Event,Sex,BirthDate
Boys,51.71,1,Marc Leos,La Feria,51.71,124.74,79.38,158.76,362.87,Unlimited,SBD,M,
Boys,55.79,1,Jesus Martinez,Zapata,55.34,165.56,77.11,170.1,412.77,Unlimited,SBD,M,
Boys,55.79,2,Christian Lozano,Rio Hondo,55.79,165.56,81.65,156.49,403.7,Unlimited,SBD,M,
Boys,55.79,3,Pablo Pitero,Zapata,53.12,113.4,70.31,136.08,319.78,Unlimited,SBD,M,
Boys,55.79,4,Francisco Lashbrook,Rio Hondo,54.2,106.59,61.23,111.13,278.96,Unlimited,SBD,M,
Boys,59.87,1,Isaac Ortega,Rio Hondo,59.87,151.95,108.86,158.76,419.57,Unlimited,SBD,M,
Boys,59.87,2,Tino Zapata,Zapata,58.24,142.88,95.25,167.83,405.97,Unlimited,SBD,M,
Boys,59.87,3,Brayan Pitero,Zapata,58.6,97.52,63.5,140.61,301.64,Unlimited,SBD,M,
Boys,67.13,1,Chris Veloz,Zapata,65.05,199.58,113.4,215.46,528.44,Unlimited,SBD,M,
Boys,67.13,2,Joseph Salazar,Zapata,65.41,183.7,99.79,213.19,496.68,Unlimited,SBD,M,
Boys,67.13,3,Felipe Martinez,Zapata,67.04,136.08,108.86,147.42,392.36,Unlimited,SBD,M,
Boys,74.84,1,Christian Sosa,La Feria,73.3,215.46,120.2,204.12,539.77,Unlimited,SBD,M,
Boys,74.84,2,Noah Vento,La Feria,73.39,195.04,127.01,201.85,523.9,Unlimited,SBD,M,
Boys,74.84,3,Nicholas Morales,La Feria,73.3,195.04,129.27,188.24,512.56,Unlimited,SBD,M,
Boys,74.84,4,Brayan Moreno,Zapata,70.76,192.78,111.13,185.97,489.88,Unlimited,SBD,M,
Boys,74.84,5,Joseph Anderson,Rio Hondo,73.16,167.83,117.93,188.24,474,Unlimited,SBD,M,
Boys,74.84,6,Rene Zamorano,Rio Hondo,74.12,183.7,104.33,183.7,471.74,Unlimited,SBD,M,
Boys,74.84,7,Kristian Aguilar,Rio Hondo,71.49,133.81,92.99,142.88,369.68,Unlimited,SBD,M,
Boys,74.84,8,Jay Aguilar,Zapata,70.67,142.88,86.18,133.81,362.87,Unlimited,SBD,M,
Boys,82.1,1,Esteban Gonzalez,La Feria,78.97,215.46,142.88,226.8,585.13,Unlimited,SBD,M,
Boys,82.1,2,Efrain Gutierrez,Rio Hondo,79.47,195.04,113.4,195.04,503.49,Unlimited,SBD,M,
Boys,82.1,3,Brandon Menchaca,La Feria,82.1,174.63,102.06,195.04,471.74,Unlimited,SBD,M,
Boys,82.1,4,Ruben Rodriguez,Rio Hondo,81.47,167.83,104.33,188.24,460.4,Unlimited,SBD,M,
Boys,82.1,5,Lacho De Jesus,Zapata,76.7,147.42,97.52,158.76,403.7,Unlimited,SBD,M,
Boys,89.81,1,Travis Menchaca,La Feria,85.55,256.28,174.63,256.28,687.19,Unlimited,SBD,M,
Boys,89.81,2,Austin Frausto,La Feria,85.37,156.49,79.38,161.03,396.89,Unlimited,SBD,M,
Boys,99.79,1,Joshua Laster,Rio Hondo,96.89,204.12,124.74,192.78,521.63,Unlimited,SBD,M,
Boys,124.74,1,Seth Morales,La Feria,121.2,254.01,131.54,192.78,578.33,Unlimited,SBD,M,
Boys,124.74,2,Joseph Figueroa,La Feria,121.83,210.92,104.33,201.85,517.1,Unlimited,SBD,M,
Boys,124.74,3,Manuel Ramirez,Rio Hondo,111.58,199.58,127.01,185.97,512.56,Unlimited,SBD,M,
Boys,124.74,4,David Vera,Zapata,115.8,190.51,111.13,181.44,483.08,Unlimited,SBD,M,
Boys,139.71,1,Cristobal Ortega,La Feria,135.35,226.8,124.74,174.63,526.17,Unlimited,SBD,M,
Boys,139.71+,1,Ricardo Barba,La Feria,167.65,226.8,151.95,201.85,580.6,Unlimited,SBD,M,
