Division,WeightClassKg,Place,Name,Team,BodyweightKg,Best3SquatKg,Best3BenchKg,Best3DeadliftKg,TotalKg,Equipment,Event,Sex,BirthDate
Boys,51.71,1,Christian Morales,Lake Belton,48.53,151.95,86.18,170.1,408.23,Unlimited,SBD,M,
Boys,51.71,2,Seth Fritz,Lake Belton,48.99,111.13,88.45,140.61,340.19,Unlimited,SBD,M,
Boys,51.71,3,Victor Windle,Waco,50.35,63.5,45.36,102.06,210.92,Unlimited,SBD,M,
Boys,51.71,4,Richard Groves,Lake Belton,51.71,77.11,54.43,79.38,210.92,Unlimited,SBD,M,
Boys,51.71,DQ,Quincy Jones,Teague,51.71,,,,,Unlimited,SBD,M,
Boys,55.79,1,Mikey Nguyen,Temple,52.62,129.27,70.31,138.35,337.93,Unlimited,SBD,M,
Boys,55.79,2,Jayden Gregory,Gatesville,53.07,99.79,54.43,108.86,263.08,Unlimited,SBD,M,
Boys,55.79,3,Barrington Brandon,Killeen,55.79,72.57,52.16,97.52,222.26,Unlimited,SBD,M,
Boys,59.87,1,Isaac Jones,Belton,59.42,204.12,113.4,204.12,521.63,Unlimited,SBD,M,
Boys,59.87,2,Nicholas Perez,Belton,59.87,138.35,92.99,163.29,394.63,Unlimited,SBD,M,
Boys,59.87,3,Rylan Norwood,Lake Belton,58.97,142.88,83.91,142.88,369.68,Unlimited,SBD,M,
Boys,59.87,4,Trace Teague,Waco Midway,57.15,102.06,90.72,124.74,317.51,Unlimited,SBD,M,
Boys,59.87,5,Elijah Bowers,Killeen,58.51,92.99,70.31,124.74,288.03,Unlimited,SBD,M,
Boys,59.87,6,Corin Ramesar,Belton,57.15,102.06,61.23,106.59,269.89,Unlimited,SBD,M,
Boys,59.87,7,Darrius Thomas,Waco University,59.42,88.45,65.77,115.67,269.89,Unlimited,SBD,M,
Boys,59.87,DQ,Dakota Thomas,Mexia,59.87,,,,,Unlimited,SBD,M,
Boys,67.13,1,Carlos Moreno,Red Oak,66.22,192.78,115.67,204.12,512.56,Unlimited,SBD,M,
Boys,67.13,2,Payton Fields,Red Oak,65.77,195.04,129.27,183.7,508.02,Unlimited,SBD,M,
Boys,67.13,3,Andrew Zuniga,Red Oak,65.32,181.44,136.08,181.44,498.95,Unlimited,SBD,M,
Boys,67.13,4,Abraham Saldana,Mexia,66.68,167.83,117.93,174.63,460.4,Unlimited,SBD,M,
Boys,67.13,5,Dewayne Simmons,Waco,64.86,131.54,108.86,161.03,401.43,Unlimited,SBD,M,
Boys,67.13,6,Logan Ricks,Belton,67.13,147.42,81.65,165.56,394.63,Unlimited,SBD,M,
Boys,67.13,7,Erick Rivera,Mexia,65.32,142.88,95.25,154.22,392.36,Unlimited,SBD,M,
Boys,67.13,8,Devon Sanders,Belton,63.05,163.29,81.65,140.61,385.55,Unlimited,SBD,M,
Boys,67.13,9,Gino Zecca,Belton,61.69,136.08,79.38,151.95,367.41,Unlimited,SBD,M,
Boys,67.13,10,Kaden Grim,Waco,61.69,124.74,92.99,142.88,360.61,Unlimited,SBD,M,
Boys,67.13,11,Reese Hankins,Teague,63.05,129.27,70.31,161.03,360.61,Unlimited,SBD,M,
Boys,67.13,12,Michael Curry,Waco University,64.41,129.27,65.77,149.69,344.73,Unlimited,SBD,M,
Boys,67.13,13,Carson Yandell,Lake Belton,63.96,124.74,77.11,136.08,337.93,Unlimited,SBD,M,
Boys,67.13,14,Dustin Ferrell,Waco Midway,61.23,115.67,74.84,136.08,326.59,Unlimited,SBD,M,
Boys,67.13,15,Brandin Stanfield,Temple,64.41,113.4,65.77,142.88,322.05,Unlimited,SBD,M,
Boys,67.13,16,Larry Schwertner,Gatesville,63.96,106.59,79.38,122.47,308.44,Unlimited,SBD,M,
Boys,67.13,17,Antonyo Ortiz,Killeen Shoemaker,63.5,120.2,52.16,113.4,285.76,Unlimited,SBD,M,
Boys,67.13,DQ,Tralan Brooks,Mexia,67.13,,,,,Unlimited,SBD,M,
Boys,67.13,DQ,Dylan Wellington,Lake Belton,63.5,183.7,104.33,,,Unlimited,SBD,M,
Boys,74.84,1,Jer'Vonnie Williams,Temple,74.39,208.65,117.93,231.33,557.92,Unlimited,SBD,M,
Boys,74.84,2,Lj Hall,Gatesville,69.4,188.24,136.08,206.38,530.7,Unlimited,SBD,M,
Boys,74.84,3,Atticus Miller,Waco,73.03,183.7,117.93,215.46,517.1,Unlimited,SBD,M,
Boys,74.84,4,Edward Dwyer,Waco Midway,74.84,172.37,115.67,192.78,480.81,Unlimited,SBD,M,
Boys,74.84,5,Brandon Molina,Killeen,73.48,165.56,102.06,204.12,471.74,Unlimited,SBD,M,
Boys,74.84,6,Tekoa Martin,Lake Belton,72.12,170.1,115.67,158.76,444.52,Unlimited,SBD,M,
Boys,74.84,7,Giani Zecca,Belton,73.03,156.49,102.06,176.9,435.45,Unlimited,SBD,M,
Boys,74.84,8,Garrett Roland,Lake Belton,74.39,170.1,97.52,165.56,433.18,Unlimited,SBD,M,
Boys,74.84,9,Brayden Mills,Gatesville,71.21,151.95,88.45,181.44,421.84,Unlimited,SBD,M,
Boys,74.84,10,Davis Duncan,Waco Midway,69.31,149.69,92.99,174.63,417.3,Unlimited,SBD,M,
Boys,74.84,11,Quintarius Fisher,Waco,68.04,145.15,92.99,170.1,408.23,Unlimited,SBD,M,
Boys,74.84,12,Drew Barefield,Waco University,71.67,136.08,90.72,158.76,385.55,Unlimited,SBD,M,
Boys,74.84,13,Thomas Morter,Belton,69.85,131.54,83.91,161.03,376.48,Unlimited,SBD,M,
Boys,74.84,DQ,Noah Reagler,Mexia,74.84,,,,,Unlimited,SBD,M,
Boys,74.84,DQ,Quentin Sterling,Killeen,72.12,,,,,Unlimited,SBD,M,
Boys,74.84,DQ,Adrian Flores,Waco University,71.21,,,,,Unlimited,SBD,M,
Boys,74.84,DQ,Vaughn McQuiston,Temple,74.84,83.91,,,,Unlimited,SBD,M,
Boys,82.1,1,Andrew Bonner,Waco Midway,79.38,240.4,149.69,229.06,619.15,Unlimited,SBD,M,
Boys,82.1,2,Seth Dunn,Waco Midway,80.29,217.72,156.49,238.14,612.35,Unlimited,SBD,M,
Boys,82.1,3,David Sims,Gatesville,80.74,195.04,131.54,197.31,523.9,Unlimited,SBD,M,
Boys,82.1,4,Will Daugherty,Lake Belton,81.65,183.7,124.74,190.51,498.95,Unlimited,SBD,M,
Boys,82.1,5,Dutch Nielson,Gatesville,78.47,181.44,108.86,181.44,471.74,Unlimited,SBD,M,
Boys,82.1,6,Jorden Johnson,Waco Midway,77.56,174.63,102.06,179.17,455.86,Unlimited,SBD,M,
Boys,82.1,7,V'Joe Brown,Killeen Shoemaker,81.19,190.51,77.11,185.97,453.59,Unlimited,SBD,M,
Boys,82.1,8,Anthony Dimiceli,Teague,80.29,183.7,124.74,142.88,451.32,Unlimited,SBD,M,
Boys,82.1,9,Rowdy Phillips,Teague,81.19,174.63,111.13,165.56,451.32,Unlimited,SBD,M,
Boys,82.1,10,Galayum Taylor,Killeen,79.83,151.95,104.33,183.7,439.98,Unlimited,SBD,M,
Boys,82.1,11,Adrian Avila,Mexia,77.11,179.17,90.72,161.03,430.91,Unlimited,SBD,M,
Boys,82.1,12,Makale Edwards,Temple,81.65,145.15,113.4,167.83,426.38,Unlimited,SBD,M,
Boys,82.1,13,Trenton Ingram,Waco Midway,82.1,181.44,88.45,151.95,421.84,Unlimited,SBD,M,
Boys,82.1,14,Jovanni Clinton,Killeen Shoemaker,76.2,120.2,122.47,174.63,417.3,Unlimited,SBD,M,
Boys,82.1,15,Kariel Melicio Delgado,Temple,80.74,154.22,97.52,165.56,417.3,Unlimited,SBD,M,
Boys,82.1,16,Alfonso Torres,Temple,76.66,136.08,92.99,156.49,385.55,Unlimited,SBD,M,
Boys,82.1,17,Patricio Gandara,Lake Belton,76.2,97.52,70.31,120.2,288.03,Unlimited,SBD,M,
Boys,82.1,18,Kyle Shugart,Teague,75.75,102.06,68.04,102.06,272.16,Unlimited,SBD,M,
Boys,82.1,19,Roman Bedolla,Red Oak,75.75,183.7,,,183.7,Unlimited,S,M,
Boys,82.1,20,Albert Mata,Red Oak,82.1,181.44,,,181.44,Unlimited,S,M,
Boys,82.1,DQ,Adam Constancio,Lake Belton,82.1,,,,,Unlimited,SBD,M,
Boys,82.1,DQ,Jasiyah Riley,Killeen Shoemaker,82.1,,,,,Unlimited,SBD,M,
Boys,89.81,1,Ivan Diaz,Waco,89.36,258.55,158.76,208.65,625.96,Unlimited,SBD,M,
Boys,89.81,2,Josiah Garcia,Killeen,89.81,226.8,124.74,210.92,562.45,Unlimited,SBD,M,
Boys,89.81,3,Kevin Alafa,Belton,88,183.7,131.54,204.12,519.36,Unlimited,SBD,M,
Boys,89.81,4,Aric Hickman,Temple,89.36,188.24,106.59,204.12,498.95,Unlimited,SBD,M,
Boys,89.81,5,Connor Thompson,Killeen,85.28,147.42,104.33,192.78,444.52,Unlimited,SBD,M,
Boys,89.81,6,Javon Glaspie,Killeen Shoemaker,89.81,161.03,92.99,181.44,435.45,Unlimited,SBD,M,
Boys,89.81,7,Thomas Vidana,Waco University,83.91,142.88,79.38,158.76,381.02,Unlimited,SBD,M,
Boys,89.81,8,Sage Tallada,Killeen Shoemaker,88.45,145.15,81.65,154.22,381.02,Unlimited,SBD,M,
Boys,89.81,9,Logan Turner,Gatesville,88.45,136.08,95.25,138.35,369.68,Unlimited,SBD,M,
Boys,89.81,10,Cole Copas,Waco Midway,84.37,102.06,58.97,136.08,297.1,Unlimited,SBD,M,
Boys,89.81,11,Gabriel Lopez,Waco University,87.09,65.77,56.7,111.13,233.6,Unlimited,SBD,M,
Boys,89.81,DQ,Ethan Ash,Belton,89.81,,,,,Unlimited,SBD,M,
Boys,99.79,1,Nathan Elliot,Gatesville,95.71,204.12,145.15,181.44,530.7,Unlimited,SBD,M,
Boys,99.79,2,Aidan Stock,Belton,92.08,188.24,124.74,215.46,528.44,Unlimited,SBD,M,
Boys,99.79,3,Javon Bryant,Waco,91.17,190.51,124.74,199.58,514.83,Unlimited,SBD,M,
Boys,99.79,4,Shawn Kirkland,Killeen Shoemaker,93.89,142.88,92.99,165.56,401.43,Unlimited,SBD,M,
Boys,99.79,5,Elvis Martinez,Waco University,94.35,79.38,90.72,133.81,303.91,Unlimited,SBD,M,
Boys,99.79,DQ,Ayden Richardson,Teague,99.79,,,,,Unlimited,SBD,M,
Boys,99.79,DQ,Ryan Camacho,Lake Belton,99.79,,,,,Unlimited,SBD,M,
Boys,99.79,DQ,Mason Smith-Welcome,Waco,93.89,170.1,,,,Unlimited,SBD,M,
Boys,99.79,DQ,Adrian Scott,Temple,93.89,226.8,,,,Unlimited,SBD,M,
Boys,109.77,1,Aaron Tagle,Lake Belton,107.5,226.8,129.27,204.12,560.19,Unlimited,SBD,M,
Boys,109.77,2,Micah Moore,Waco,108.86,226.8,145.15,183.7,555.65,Unlimited,SBD,M,
Boys,109.77,3,Gabe Dickey,Red Oak,104.78,183.7,120.2,204.12,508.02,Unlimited,SBD,M,
Boys,109.77,4,Kaden Bradshaw,Lake Belton,107.5,174.63,129.27,188.24,492.15,Unlimited,SBD,M,
Boys,109.77,5,Luke Hermann,Temple,108.86,190.51,102.06,190.51,483.08,Unlimited,SBD,M,
Boys,109.77,DQ,Jametric Adams,Mexia,109.77,,,,,Unlimited,SBD,M,
Boys,109.77,DQ,Alex Perez,Teague,107.5,210.92,142.88,,,Unlimited,SBD,M,
Boys,109.77,DQ,Carl Shugart,Teague,109.77,201.85,102.06,,,Unlimited,SBD,M,
Boys,124.74,1,Xavier West,Mexia,123.74,274.42,142.88,219.99,637.3,Unlimited,SBD,M,
Boys,124.74,2,Teshawn Byers,Killeen Shoemaker,113.85,242.67,161.03,226.8,630.49,Unlimited,SBD,M,
Boys,124.74,3,Dominic Simpson,Lake Belton,122.47,229.06,133.81,226.8,589.67,Unlimited,SBD,M,
Boys,124.74,4,Brett Harmon,Lake Belton,115.21,208.65,136.08,192.78,537.51,Unlimited,SBD,M,
Boys,124.74,5,Evan Roland,Lake Belton,111.58,215.46,136.08,183.7,535.24,Unlimited,SBD,M,
Boys,124.74,6,Zay Thomas,Lake Belton,114.31,235.87,117.93,165.56,519.36,Unlimited,SBD,M,
Boys,124.74,7,Michael Gibson,Waco Midway,120.66,204.12,124.74,185.97,514.83,Unlimited,SBD,M,
Boys,124.74,8,Ray Jones,Gatesville,120.2,192.78,136.08,183.7,512.56,Unlimited,SBD,M,
Boys,124.74,9,DeAndre Smith,Waco,124.74,217.72,95.25,199.58,512.56,Unlimited,SBD,M,
Boys,124.74,10,Eric Grooms,Waco University,110.68,170.1,111.13,213.19,494.42,Unlimited,SBD,M,
Boys,124.74,11,Ray'Shawn Toliver,Waco,112.94,174.63,111.13,201.85,487.61,Unlimited,SBD,M,
Boys,124.74,12,Evan Gilbert,Teague,115.21,188.24,124.74,170.1,483.08,Unlimited,SBD,M,
Boys,124.74,13,Samari Simpson,Killeen Shoemaker,119.29,179.17,124.74,170.1,474,Unlimited,SBD,M,
Boys,124.74,14,Konner Ziegelt,Waco Midway,110.68,176.9,108.86,165.56,451.32,Unlimited,SBD,M,
Boys,124.74,15,Logan Ash,Temple,117.93,174.63,102.06,165.56,442.25,Unlimited,SBD,M,
Boys,124.74,16,Michael Sandlin,Lake Belton,115.67,142.88,102.06,154.22,399.16,Unlimited,SBD,M,
Boys,124.74,DQ,Damian Molina,Mexia,124.74,,,,,Unlimited,SBD,M,
Boys,124.74,DQ,Zavion Tibbs,Killeen Shoemaker,110.22,,,,,Unlimited,SBD,M,
Boys,124.74,DQ,Julian Torres,Waco Midway,120.2,219.99,,,,Unlimited,SBD,M,
Boys,139.71,1,Endrei Sauls,Temple,136.98,247.21,145.15,244.94,637.3,Unlimited,SBD,M,
Boys,139.71,2,Paul Monrial,Waco University,126.55,238.14,158.76,231.33,628.23,Unlimited,SBD,M,
Boys,139.71,3,Challen Ma'ileoi,Lake Belton,136.08,254.01,170.1,204.12,628.23,Unlimited,SBD,M,
Boys,139.71,4,Zachary Erickson,Belton,133.81,226.8,142.88,242.67,612.35,Unlimited,SBD,M,
Boys,139.71,5,Markus Abrego,Lake Belton,137.89,229.06,149.69,226.8,605.55,Unlimited,SBD,M,
Boys,139.71,6,Logan Gandara,Lake Belton,128.82,238.14,133.81,213.19,585.13,Unlimited,SBD,M,
Boys,139.71,7,Kareem Edmon,Killeen Shoemaker,127.46,219.99,129.27,204.12,553.38,Unlimited,SBD,M,
Boys,139.71,8,Chris Obergon,Mexia,128.37,219.99,136.08,197.31,553.38,Unlimited,SBD,M,
Boys,139.71,9,Gerardo Garcia,Waco,128.82,206.38,131.54,204.12,542.04,Unlimited,SBD,M,
Boys,139.71,10,Connor Beeman,Killeen,133.36,215.46,115.67,197.31,528.44,Unlimited,SBD,M,
Boys,139.71,11,Cooper Jones,Gatesville,125.65,188.24,136.08,181.44,505.76,Unlimited,SBD,M,
Boys,139.71,DQ,Austin Corten,Lake Belton,139.71,,,,,Unlimited,SBD,M,
Boys,139.71,DQ,Dixon Nichols,Teague,126.1,197.31,,,,Unlimited,SBD,M,
Boys,139.71,DQ,Andre Salazar,Waco University,135.17,,,,,Unlimited,SBD,M,
Boys,139.71+,1,Adam Walden,Lake Belton,166.47,290.3,181.44,238.14,709.87,Unlimited,SBD,M,
Boys,139.71+,2,Enrique Rangel,Waco University,142.43,260.82,183.7,197.31,641.83,Unlimited,SBD,M,
Boys,139.71+,3,Zach Bryant,Gatesville,140.61,263.08,156.49,210.92,630.49,Unlimited,SBD,M,
Boys,139.71+,4,Gabe Charles,Gatesville,149.23,260.82,133.81,204.12,598.74,Unlimited,SBD,M,
Boys,139.71+,5,Jonathan Jackson,Waco,149.69,183.7,115.67,185.97,485.34,Unlimited,SBD,M,
Boys,139.71+,6,Elario Chavas,Killeen,143.79,129.27,104.33,158.76,392.36,Unlimited,SBD,M,
Boys,139.71+,DQ,Jaquarius Mcclendon,Killeen Shoemaker,146.96,238.14,,,,Unlimited,SBD,M,
Boys,,NS,Kevin Kopenski,Killeen,,,,,,Unlimited,SBD,M,
Boys,,NS,Cameron Gee,Killeen,,,,,,Unlimited,SBD,M,
Boys,,NS,Bakdenar Balderas,Killeen,,,,,,Unlimited,SBD,M,
Boys,,NS,David Patina,Killeen,,,,,,Unlimited,SBD,M,
Boys,,NS,Jaylen Batchan,Killeen,,,,,,Unlimited,SBD,M,
